Publication - Results
…
## # A tibble: 2 x 4
## # Groups:   analysisId [2]
##   analysisId analysisDescription                           total_analyses non_na
##        <int> <chr>                                                  <int>  <int>
## 1          1 No prior outcome in last 30d, 5 PS strata, T            162     67
## 2          2 No prior outcome in last 30d, 5 PS strata, T            162     61

df_results_nn %>% 
  group_by(outcomeId,outcomeName) %>% 
  dplyr::summarise(count=n())

## `summarise()` has grouped output by 'outcomeId'. You can override using the `.groups` argument.

## # A tibble: 81 x 3
## # Groups:   outcomeId [81]
##    outcomeId outcomeName                                                   count
##        <int> <chr>                                                         <int>
##  1         6 "[LEGEND HTN] Persons with chest pain or angina"                  4
##  2         7 "[LEGEND HTN] Venous thromboembolic (pulmonary embolism and      4
##  3         8 "[LEGEND HTN] Acute renal failure events"                         4
##  4         9 "[LEGEND HTN] Persons with end stage renal disease"               4
##  5        10 "[LEGEND HTN] Persons with hepatic failure"                       4
##  6        11 "[LEGEND HTN] Acute pancreatitis events"                          4
##  7        12 "[LEGEND HTN] Persons with heart failure"                         4
##  8        13 "[LEGEND HTN] Total cardiovascular disease events"                4
##  9        15 "[LEGEND HTN] Person with cardiac arrhythmia"                     4
## 10        16 "[LEGEND HTN] Persons with bradycardia"                           4
## #  with 71 more rows

df_results_nn %>% 
  group_by(outcomeId,outcomeName,
           comparatorId,comparatorName) %>% 
  dplyr::summarise(count=n())

## `summarise()` has grouped output by 'outcomeId', 'outcomeName', 'comparatorId'. You can override using the `.groups` argument.

## # A tibble: 162 x 5
## # Groups:   outcomeId, outcomeName, comparatorId [162]
##    outcomeId outcomeName             comparatorId comparatorName           count
##        <int> <chr>                          <int> <chr>                    <int>
##  1         6 "[LEGEND HTN] Persons            28 [OHDSI Cov19] New users     2
##  2         6 "[LEGEND HTN] Persons           143 [OHDSI-Covid19] Hydroxy     2
##  3         7 "[LEGEND HTN] Venous t           28 [OHDSI Cov19] New users     2
##  4         7 "[LEGEND HTN] Venous t          143 [OHDSI-Covid19] Hydroxy     2
##  5         8 "[LEGEND HTN] Acute re           28 [OHDSI Cov19] New users     2
##  6         8 "[LEGEND HTN] Acute re          143 [OHDSI-Covid19] Hydroxy     2
##  7         9 "[LEGEND HTN] Persons            28 [OHDSI Cov19] New users     2
##  8         9 "[LEGEND HTN] Persons           143 [OHDSI-Covid19] Hydroxy     2
##  9        10 "[LEGEND HTN] Persons            28 [OHDSI Cov19] New users     2
## 10        10 "[LEGEND HTN] Persons           143 [OHDSI-Covid19] Hydroxy     2
## #  with 152 more rows
…
df_results_nn %>% 
  group_by(outcomeId,outcomeName,
           comparatorId,comparatorName,
           targetId,targetName) %>% 
  dplyr::summarise(count=n())

## `summarise()` has grouped output by 'outcomeId', 'outcomeName', 'comparatorId', 'comparatorName', 'targetId'. You can override using the `.groups` argument.

## # A tibble: 162 x 7
## # Groups:   outcomeId, outcomeName, comparatorId, comparatorName, targetId
## #   [162]
##    outcomeId outcomeName  comparatorId comparatorName  targetId targetName count
##        <int> <chr>               <int> <chr>              <int> <chr>      <int>
##  1         6 "[LEGEND HT           28 [OHDSI Cov19]         2 [OHDSI Co     2
##  2         6 "[LEGEND HT          143 [OHDSI-Covid19      137 [OHDSI-Co     2
##  3         7 "[LEGEND HT           28 [OHDSI Cov19]         2 [OHDSI Co     2
##  4         7 "[LEGEND HT          143 [OHDSI-Covid19      137 [OHDSI-Co     2
##  5         8 "[LEGEND HT           28 [OHDSI Cov19]         2 [OHDSI Co     2
##  6         8 "[LEGEND HT          143 [OHDSI-Covid19      137 [OHDSI-Co     2
##  7         9 "[LEGEND HT           28 [OHDSI Cov19]         2 [OHDSI Co     2
##  8         9 "[LEGEND HT          143 [OHDSI-Covid19      137 [OHDSI-Co     2
##  9        10 "[LEGEND HT           28 [OHDSI Cov19]         2 [OHDSI Co     2
## 10        10 "[LEGEND HT          143 [OHDSI-Covid19      137 [OHDSI-Co     2
## #  with 152 more rows
…
